0 0.29345703125 0.7109375 0.0439453125 0.1640625
0 0.490234375 0.7421875 0.0390625 0.181640625
0 0.677734375 0.7666015625 0.05859375 0.1875
0 0.6513671875 0.103515625 0.046875 0.16015625
0 0.47412109375 0.0947265625 0.0322265625 0.1484375
0 0.8095703125 0.74462890625 0.046875 0.1865234375