0 0.6328125 0.68798828125 0.072265625 0.1298828125
0 0.46826171875 0.1826171875 0.0576171875 0.111328125
0 0.484375 0.646484375 0.056640625 0.1328125
0 0.375 0.1943359375 0.068359375 0.130859375
0 0.74365234375 0.0732421875 0.0341796875 0.078125
0 0.41796875 0.537109375 0.044921875 0.111328125