0 0.1357421875 0.60791015625 0.009765625 0.0615234375
0 0.3203125 0.62939453125 0.03515625 0.1064453125
0 0.587890625 0.66845703125 0.056640625 0.1474609375
0 0.84814453125 0.6953125 0.0283203125 0.076171875
0 0.84716796875 0.2509765625 0.0263671875 0.115234375
0 0.62060546875 0.21728515625 0.0458984375 0.0908203125
0 0.37939453125 0.201171875 0.0478515625 0.119140625
0 0.201171875 0.19873046875 0.0234375 0.0673828125