0 0.39306640625 0.7099609375 0.1083984375 0.119140625
0 0.6865234375 0.7158203125 0.056640625 0.09375
0 0.84326171875 0.27001953125 0.0361328125 0.0654296875
0 0.6650390625 0.21630859375 0.0703125 0.1162109375
0 0.4013671875 0.19775390625 0.09375 0.1259765625
0 0.1748046875 0.23828125 0.06640625 0.09375