0 0.34423828125 0.7265625 0.0439453125 0.115234375
0 0.6376953125 0.72802734375 0.083984375 0.1044921875
0 0.56298828125 0.25537109375 0.0615234375 0.1005859375
0 0.3115234375 0.23681640625 0.0625 0.1005859375
0 0.8046875 0.24267578125 0.044921875 0.0986328125