0 0.24951171875 0.68603515625 0.0419921875 0.1044921875
0 0.591796875 0.81201171875 0.078125 0.0947265625
0 0.5986328125 0.2177734375 0.03515625 0.08984375
0 0.73583984375 0.29345703125 0.0615234375 0.1005859375
0 0.34912109375 0.11572265625 0.0419921875 0.0654296875