1 0.43306451612903224 0.7496909765142151 0.13064516129032258 0.1965389369592089
1 0.7080645161290323 0.8139678615574785 0.1032258064516129 0.1965389369592089
0 0.9338709677419355 0.8362175525339925 0.07419354838709677 0.16440049443757726
0 0.1403225806451613 0.13782447466007416 0.16129032258064516 0.1965389369592089
0 0.47016129032258064 0.13782447466007416 0.1693548387096774 0.1965389369592089
0 0.7596774193548387 0.20704573547589616 0.12258064516129032 0.1965389369592089