0 0.2353515625 0.69921875 0.041015625 0.107421875
0 0.40185546875 0.73388671875 0.0498046875 0.1337890625
0 0.62548828125 0.740234375 0.0947265625 0.130859375
0 0.78759765625 0.7685546875 0.0556640625 0.130859375
0 0.41552734375 0.171875 0.0615234375 0.12890625
0 0.20263671875 0.1494140625 0.0380859375 0.130859375