1 0.83154296875 0.82568359375 0.0869140625 0.1162109375
1 0.708984375 0.16748046875 0.12109375 0.1220703125
0 0.5732421875 0.81689453125 0.044921875 0.1455078125
0 0.3203125 0.80224609375 0.046875 0.1279296875
0 0.48876953125 0.20068359375 0.0478515625 0.1220703125
0 0.279296875 0.21337890625 0.041015625 0.1337890625