0 0.67236328125 0.6650390625 0.1455078125 0.232421875
0 0.41845703125 0.703125 0.0615234375 0.228515625
0 0.470703125 0.158203125 0.072265625 0.228515625
0 0.65478515625 0.146484375 0.0419921875 0.169921875