0 0.1611328125 0.75048828125 0.046875 0.1494140625
0 0.41943359375 0.7509765625 0.0419921875 0.111328125
0 0.822265625 0.216796875 0.083984375 0.14453125
0 0.5556640625 0.2373046875 0.0546875 0.09375
0 0.2783203125 0.23828125 0.037109375 0.123046875