1 0.8106215596199036 0.1651773788034916 0.07818520069122314 0.12514155358076096
1 0.8106215596199036 0.1651773788034916 0.07818520069122314 0.12514155358076096
1 0.8106215596199036 0.1651773788034916 0.07818520069122314 0.12514155358076096
1 0.8106215596199036 0.1651773788034916 0.07818520069122314 0.12514155358076096