1 0.5146484375 0.1025390625 0.060546875 0.171875
0 0.28271484375 0.23046875 0.0263671875 0.0703125
0 0.7685546875 0.171875 0.095703125 0.12890625
0 0.71484375 0.6904296875 0.056640625 0.107421875
0 0.462890625 0.64306640625 0.0234375 0.0888671875
0 0.17578125 0.58251953125 0.033203125 0.0888671875