1 0.14538324251770973 0.6971631646156311 0.0886472687125206 0.14458048343658447
1 0.14538324251770973 0.6971631646156311 0.0886472687125206 0.14458048343658447
1 0.14538324251770973 0.6971631646156311 0.0886472687125206 0.14458048343658447
1 0.14538324251770973 0.6971631646156311 0.0886472687125206 0.14458048343658447