1 0.3642578125 0.8173828125 0.123046875 0.16796875
0 0.5498046875 0.8046875 0.06640625 0.158203125
0 0.71142578125 0.22216796875 0.0419921875 0.0830078125
0 0.4853515625 0.2763671875 0.048828125 0.109375
0 0.31982421875 0.2470703125 0.0771484375 0.12109375
0 0.16259765625 0.20361328125 0.0517578125 0.0908203125