0 0.35 0.6954656862745098 0.12258064516129032 0.19730392156862744
0 0.7314516129032258 0.7071078431372549 0.08225806451612903 0.19117647058823528
0 0.6854838709677419 0.14705882352941177 0.12580645161290321 0.18137254901960784
0 0.3459677419354839 0.17647058823529413 0.11129032258064517 0.16911764705882354