0 0.17431640625 0.2509765625 0.0712890625 0.15625
0 0.43017578125 0.275390625 0.0615234375 0.15625
0 0.67333984375 0.287109375 0.0654296875 0.15625
0 0.84619140625 0.3046875 0.0458984375 0.15625
0 0.1572265625 0.669921875 0.033203125 0.15625
0 0.41845703125 0.779296875 0.0556640625 0.15625
0 0.73486328125 0.78515625 0.0673828125 0.12890625