0 0.27978515625 0.744140625 0.0419921875 0.16015625
0 0.7080078125 0.595703125 0.041015625 0.13671875
0 0.17919921875 0.69677734375 0.0439453125 0.1259765625
0 0.19970703125 0.23046875 0.0498046875 0.146484375
0 0.775390625 0.19189453125 0.0390625 0.1279296875
0 0.52197265625 0.1826171875 0.0302734375 0.12109375