0 0.5458984375 0.796875 0.2265625 0.15234375
0 0.8349609375 0.72998046875 0.0390625 0.1337890625
0 0.15478515625 0.7060546875 0.0517578125 0.125
0 0.369140625 0.1923828125 0.02734375 0.123046875
0 0.7666015625 0.2431640625 0.0234375 0.08984375
0 0.60595703125 0.25 0.0087890625 0.064453125