1 0.5369774919614148 0.7264851485148515 0.22508038585209003 0.1608910891089109
0 0.5361736334405145 0.08539603960396039 0.09807073954983923 0.15099009900990099
0 0.8593247588424437 0.12995049504950495 0.1495176848874598 0.1608910891089109
0 0.8191318327974276 0.5977722772277227 0.14308681672025725 0.1608910891089109
1 0.22909967845659165 0.09034653465346534 0.09807073954983923 0.1608910891089109