0 0.2783203125 0.62255859375 0.0625 0.1552734375
0 0.39697265625 0.068359375 0.1904296875 0.0859375
0 0.4716796875 0.62255859375 0.080078125 0.1552734375
0 0.798828125 0.64013671875 0.080078125 0.1552734375
0 0.728515625 0.09521484375 0.041015625 0.1396484375