1 0.6519292604501608 0.6336633663366336 0.21061093247588425 0.12623762376237624
0 0.8971061093247588 0.6392326732673267 0.07395498392282958 0.12747524752475248
0 0.2516077170418006 0.48267326732673266 0.07234726688102894 0.11633663366336634
0 0.5064308681672026 0.16274752475247525 0.07395498392282958 0.09282178217821782
0 0.17363344051446944 0.14665841584158418 0.04501607717041801 0.09034653465346534
0 0.8416398713826366 0.09900990099009901 0.04019292604501608 0.09158415841584158