0 0.54296875 0.8154296875 0.0390625 0.119140625
0 0.71142578125 0.85693359375 0.0361328125 0.0986328125
0 0.3388671875 0.763671875 0.087890625 0.109375
0 0.560546875 0.2744140625 0.052734375 0.123046875
0 0.72412109375 0.3125 0.0263671875 0.115234375
0 0.38720703125 0.23583984375 0.0673828125 0.1220703125