1 0.765625 0.216796875 0.07421875 0.1015625
1 0.294921875 0.765625 0.216796875 0.11328125
1 0.41015625 0.15673828125 0.12890625 0.1044921875
0 0.5556640625 0.142578125 0.044921875 0.08984375
0 0.4794921875 0.71875 0.03515625 0.0859375
0 0.6796875 0.701171875 0.1015625 0.134765625
0 0.85498046875 0.650390625 0.0439453125 0.0859375