0 0.3798828125 0.6201171875 0.04296875 0.09765625
0 0.66845703125 0.685546875 0.0830078125 0.1015625
0 0.6328125 0.2021484375 0.0859375 0.126953125
0 0.40185546875 0.19775390625 0.0302734375 0.0712890625
0 0.18359375 0.17138671875 0.044921875 0.0908203125