0 0.23291015625 0.7158203125 0.0439453125 0.099609375
0 0.5048828125 0.7255859375 0.056640625 0.154296875
0 0.6826171875 0.69384765625 0.0546875 0.1220703125
0 0.85791015625 0.66455078125 0.0205078125 0.0830078125
0 0.705078125 0.2119140625 0.037109375 0.109375
0 0.54296875 0.24853515625 0.0625 0.1298828125
0 0.35595703125 0.25439453125 0.0947265625 0.1533203125
0 0.1435546875 0.294921875 0.015625 0.08203125