0 0.376953125 0.7119140625 0.052734375 0.17578125
0 0.5126953125 0.72119140625 0.06640625 0.1630859375
0 0.64599609375 0.73583984375 0.0537109375 0.1806640625
0 0.64453125 0.10888671875 0.0390625 0.1455078125
0 0.396484375 0.1435546875 0.044921875 0.169921875
0 0.21875 0.13818359375 0.044921875 0.1494140625