0 0.556640625 0.716796875 0.052734375 0.154296875
0 0.8583984375 0.7353515625 0.033203125 0.109375
0 0.58154296875 0.0927734375 0.0498046875 0.103515625
0 0.32470703125 0.10009765625 0.0615234375 0.1240234375
0 0.2587890625 0.4931640625 0.046875 0.1484375