0 0.6572265625 0.66748046875 0.029296875 0.1044921875
0 0.84619140625 0.7080078125 0.0419921875 0.125
0 0.58642578125 0.12353515625 0.0302734375 0.1181640625
0 0.75341796875 0.1201171875 0.0244140625 0.107421875
0 0.369140625 0.66259765625 0.03515625 0.1044921875
0 0.328125 0.0869140625 0.029296875 0.091796875