0 0.4814453125 0.79345703125 0.083984375 0.1181640625
0 0.7421875 0.78662109375 0.056640625 0.1435546875
0 0.72900390625 0.30908203125 0.0439453125 0.1337890625
0 0.4931640625 0.28271484375 0.056640625 0.0908203125
0 0.2353515625 0.2705078125 0.0546875 0.0859375