1 0.71142578125 0.85302734375 0.1494140625 0.2470703125
0 0.4111328125 0.64599609375 0.052734375 0.1064453125
0 0.3203125 0.5673828125 0.056640625 0.146484375
0 0.3935546875 0.14501953125 0.056640625 0.1279296875
0 0.27783203125 0.14892578125 0.0556640625 0.0947265625
0 0.65576171875 0.14794921875 0.0478515625 0.1005859375