0 0.42822265625 0.84619140625 0.1123046875 0.0869140625
0 0.740234375 0.8525390625 0.05859375 0.0859375
0 0.83837890625 0.79248046875 0.0498046875 0.0869140625
0 0.673828125 0.21923828125 0.0859375 0.1220703125
0 0.44384765625 0.23876953125 0.0830078125 0.1279296875
0 0.21044921875 0.23095703125 0.0537109375 0.1103515625