0 0.52001953125 0.77880859375 0.0380859375 0.1337890625
0 0.81396484375 0.703125 0.0810546875 0.2109375
0 0.279296875 0.78759765625 0.0625 0.1962890625
0 0.18994140625 0.40234375 0.0615234375 0.111328125
0 0.3515625 0.29052734375 0.037109375 0.1083984375
0 0.51708984375 0.12451171875 0.0634765625 0.1904296875