0 0.25732421875 0.82861328125 0.0986328125 0.1455078125
0 0.45263671875 0.86572265625 0.0732421875 0.1064453125
0 0.69384765625 0.8681640625 0.0810546875 0.099609375
0 0.8291015625 0.8203125 0.0859375 0.115234375
0 0.4765625 0.08935546875 0.046875 0.0966796875