1 0.7348423302173615 0.8010384738445282 0.19628113508224487 0.15415853261947632
1 0.540324479341507 0.8693355619907379 0.10104542970657349 0.15490704774856567
1 0.38461196422576904 0.8787062168121338 0.09022665023803711 0.1047278642654419
1 0.5085874199867249 0.2641552612185478 0.0765465497970581 0.0765465646982193