0 0.37740384615384615 0.7771672771672772 0.0625 0.13797313797313798
0 0.6033653846153847 0.7203907203907204 0.03365384615384615 0.1391941391941392
0 0.8149038461538461 0.7185592185592187 0.04326923076923077 0.15262515262515264
0 0.18349358974358976 0.21306471306471308 0.3092948717948718 0.12087912087912088
0 0.5729166666666666 0.15079365079365079 0.030448717948717948 0.09157509157509157