0 0.37060546875 0.1298828125 0.1005859375 0.15625
0 0.55078125 0.1455078125 0.033203125 0.15625
0 0.7041015625 0.111328125 0.046875 0.15625
0 0.7158203125 0.7080078125 0.046875 0.15625
0 0.33447265625 0.669921875 0.4150390625 0.15625