1 0.37841796875 0.16259765625 0.0693359375 0.1396484375
1 0.51220703125 0.86376953125 0.0654296875 0.1162109375
1 0.34912109375 0.90185546875 0.0751953125 0.1005859375
1 0.5458984375 0.1103515625 0.0625 0.11328125