0 0.07983870967741935 0.16056166056166055 0.10161290322580645 0.17704517704517705
0 0.43790322580645163 0.16666666666666669 0.037096774193548385 0.18681318681318682
0 0.8209677419354839 0.10439560439560439 0.2064516129032258 0.18925518925518925
0 0.2370967741935484 0.7564102564102564 0.14193548387096774 0.19413919413919414
0 0.6911290322580645 0.6611721611721612 0.5693548387096774 0.19413919413919414