1 0.462890625 0.654296875 0.0859375 0.15234375
1 0.74072265625 0.59326171875 0.0927734375 0.1630859375
0 0.80419921875 0.26708984375 0.0380859375 0.1044921875
0 0.84228515625 0.57421875 0.0302734375 0.078125
0 0.4951171875 0.21142578125 0.0625 0.1318359375
0 0.25048828125 0.19677734375 0.0537109375 0.1181640625