0 0.1982421875 0.798828125 0.037109375 0.146484375
0 0.509765625 0.77197265625 0.08203125 0.1259765625
0 0.81201171875 0.63037109375 0.0771484375 0.1455078125
0 0.69873046875 0.18408203125 0.0732421875 0.1689453125
0 0.47705078125 0.24072265625 0.0439453125 0.1181640625
0 0.22119140625 0.24462890625 0.0498046875 0.1083984375