0 0.615234375 0.2822265625 0.087890625 0.103515625
0 0.40283203125 0.2255859375 0.0517578125 0.0859375
0 0.23388671875 0.134765625 0.0380859375 0.0859375
0 0.3154296875 0.6689453125 0.056640625 0.115234375