1 0.326171875 0.6435546875 0.109375 0.12109375
0 0.5263671875 0.70849609375 0.046875 0.1181640625
0 0.73388671875 0.83837890625 0.0615234375 0.0986328125
0 0.81005859375 0.3427734375 0.0478515625 0.12109375
0 0.6689453125 0.27880859375 0.05078125 0.1064453125
0 0.58935546875 0.24365234375 0.0478515625 0.1123046875