0 0.69091796875 0.8173828125 0.0576171875 0.119140625
0 0.830078125 0.8525390625 0.0625 0.1171875
0 0.3603515625 0.9189453125 0.060546875 0.09375
0 0.466796875 0.2314453125 0.048828125 0.125
0 0.1884765625 0.279296875 0.033203125 0.1015625