0 0.41162109375 0.76806640625 0.2431640625 0.1552734375
0 0.75439453125 0.28955078125 0.1943359375 0.1552734375
0 0.40625 0.25048828125 0.064453125 0.1552734375
0 0.16552734375 0.23193359375 0.0380859375 0.1552734375