0 0.3837890625 0.76806640625 0.041015625 0.1240234375
0 0.59130859375 0.763671875 0.0986328125 0.134765625
0 0.81298828125 0.68994140625 0.0302734375 0.1181640625
0 0.19775390625 0.79638671875 0.0439453125 0.1044921875
0 0.47314453125 0.158203125 0.0361328125 0.091796875
0 0.29150390625 0.19482421875 0.0634765625 0.0869140625