0 0.17632850241545894 0.6044499381953028 0.1143317230273752 0.13597033374536466
0 0.5628019323671497 0.7546353522867738 0.13365539452495975 0.09765142150803462
0 0.6892109500805154 0.2373300370828183 0.07085346215780998 0.1161928306551298
0 0.3687600644122383 0.24165636588380718 0.04830917874396135 0.13473423980222496