0 0.2536231884057971 0.6396786155747837 0.05314009661835749 0.15203955500618047
0 0.7302737520128825 0.5173053152039555 0.04669887278582931 0.1273176761433869
0 0.8792270531400966 0.49938195302843014 0.061191626409017714 0.18788627935723115
0 0.3752012882447665 0.07045735475896168 0.04508856682769726 0.09394313967861558
0 0.18840579710144928 0.08838071693448701 0.05475040257648953 0.11248454882571075
0 0.09098228663446054 0.5896168108776267 0.05314009661835749 0.14585908529048208