0 0.55126953125 0.73974609375 0.1474609375 0.1552734375
0 0.31640625 0.73095703125 0.060546875 0.1552734375
0 0.1748046875 0.25927734375 0.041015625 0.1552734375
0 0.33203125 0.23974609375 0.048828125 0.1552734375
0 0.4970703125 0.24560546875 0.03125 0.1552734375