0 0.18017578125 0.64404296875 0.0771484375 0.1435546875
0 0.458984375 0.728515625 0.115234375 0.115234375
0 0.75439453125 0.71923828125 0.0888671875 0.1025390625
0 0.7138671875 0.1953125 0.072265625 0.103515625
0 0.47509765625 0.1728515625 0.0634765625 0.109375
0 0.24853515625 0.1533203125 0.0986328125 0.111328125