0 0.3046875 0.74755859375 0.03515625 0.1162109375
0 0.5771484375 0.7138671875 0.046875 0.12890625
0 0.82958984375 0.59228515625 0.0400390625 0.1318359375
0 0.67333984375 0.0546875 0.0478515625 0.0390625
0 0.5 0.08544921875 0.080078125 0.0947265625