0 0.24609375 0.57373046875 0.048828125 0.1025390625
0 0.53466796875 0.79638671875 0.2255859375 0.2197265625
0 0.8203125 0.78173828125 0.087890625 0.1689453125
0 0.79931640625 0.2177734375 0.0517578125 0.181640625
0 0.53955078125 0.1396484375 0.0712890625 0.15625
0 0.28515625 0.11279296875 0.08984375 0.1591796875