0 0.36669921875 0.705078125 0.0478515625 0.095703125
0 0.55908203125 0.6787109375 0.0478515625 0.107421875
0 0.7333984375 0.62353515625 0.0390625 0.1044921875
0 0.57177734375 0.24267578125 0.0654296875 0.1279296875
0 0.76220703125 0.20458984375 0.0537109375 0.1064453125
0 0.400390625 0.28173828125 0.05859375 0.0986328125