1 0.32045088566827695 0.7904820766378245 0.1610305958132045 0.1965389369592089
0 0.5998389694041868 0.7657601977750309 0.0853462157809984 0.1965389369592089
0 0.8405797101449276 0.7496909765142151 0.07085346215780998 0.1965389369592089
0 0.06924315619967794 0.22805933250927068 0.10305958132045089 0.1965389369592089
0 0.32689210950080516 0.20086526576019778 0.14170692431561996 0.1965389369592089
0 0.5869565217391304 0.1662546353522868 0.09500805152979067 0.1965389369592089
0 0.8454106280193237 0.14276885043263288 0.10305958132045089 0.1965389369592089