1 0.51953125 0.8408203125 0.080078125 0.181640625
0 0.826171875 0.73388671875 0.0390625 0.1279296875
0 0.673828125 0.38525390625 0.0625 0.1337890625
0 0.80224609375 0.349609375 0.0634765625 0.17578125
0 0.23095703125 0.77294921875 0.0322265625 0.1455078125