0 0.25390625 0.716796875 0.044921875 0.16015625
0 0.39501953125 0.7451171875 0.0771484375 0.205078125
0 0.55029296875 0.1494140625 0.0595703125 0.205078125
0 0.2802734375 0.15283203125 0.0625 0.2236328125
0 0.5634765625 0.75048828125 0.05078125 0.2197265625
0 0.68994140625 0.1318359375 0.0751953125 0.193359375