0 0.3955078125 0.16015625 0.03125 0.158203125
0 0.5400390625 0.1708984375 0.052734375 0.138671875
0 0.22998046875 0.1591796875 0.0263671875 0.130859375
0 0.7744140625 0.8740234375 0.115234375 0.107421875
0 0.52978515625 0.92138671875 0.1064453125 0.1201171875