0 0.34521484375 0.1767578125 0.3388671875 0.15625
0 0.74560546875 0.07080078125 0.1142578125 0.1005859375
0 0.189453125 0.7158203125 0.095703125 0.15625
0 0.51171875 0.71875 0.068359375 0.15625
0 0.8017578125 0.7236328125 0.119140625 0.15625