0 0.216 0.7859756097560975 0.0704 0.174390243902439
0 0.6088 0.7792682926829267 0.0816 0.15365853658536585
0 0.37520000000000003 0.20426829268292684 0.056 0.1402439024390244
0 0.7696000000000001 0.2371951219512195 0.0864 0.14268292682926828
0 0.1616 0.17317073170731706 0.0576 0.13658536585365855
0 0.5703999999999999 0.19634146341463415 0.0592 0.14146341463414633