0 0.03456591639871383 0.710171568627451 0.04019292604501608 0.12377450980392157
0 0.3979099678456592 0.7457107843137255 0.07877813504823152 0.1409313725490196
0 0.8287781350482315 0.7487745098039216 0.2909967845659164 0.17401960784313725
0 0.13585209003215434 0.2107843137254902 0.20418006430868169 0.18627450980392157
0 0.49517684887459806 0.1991421568627451 0.07717041800643087 0.14583333333333334
0 0.7781350482315113 0.1519607843137255 0.05144694533762058 0.11764705882352941