1 0.2978515625 0.73095703125 0.212890625 0.1552734375
0 0.60791015625 0.70849609375 0.0517578125 0.1552734375
0 0.7763671875 0.70751953125 0.044921875 0.1552734375
0 0.8076171875 0.21923828125 0.04296875 0.1552734375
0 0.6455078125 0.22705078125 0.037109375 0.1552734375
0 0.48828125 0.23193359375 0.0234375 0.1552734375