1 0.724609375 0.8056640625 0.1640625 0.166015625
0 0.55419921875 0.7607421875 0.0810546875 0.16015625
0 0.353515625 0.71435546875 0.068359375 0.1181640625
0 0.50146484375 0.150390625 0.0615234375 0.12109375
0 0.68798828125 0.259765625 0.0498046875 0.12109375
0 0.2978515625 0.14453125 0.095703125 0.103515625