0 0.47265625 0.80126953125 0.056640625 0.1396484375
0 0.65576171875 0.80712890625 0.0771484375 0.2080078125
0 0.6826171875 0.169921875 0.0625 0.171875
0 0.50146484375 0.21728515625 0.0517578125 0.1083984375
0 0.3564453125 0.17138671875 0.03125 0.0927734375