1 0.13526570048309178 0.6485819975339088 0.18035426731078905 0.08877928483353884
0 0.7061191626409018 0.7891491985203453 0.09822866344605476 0.11097410604192355
0 0.9194847020933977 0.811960542540074 0.09339774557165861 0.12946979038224415
0 0.8703703703703703 0.25462392108508014 0.040257648953301126 0.11713933415536375
0 0.640096618357488 0.18803945745992603 0.06280193236714976 0.11713933415536375
0 0.40579710144927533 0.15536374845869297 0.04508856682769726 0.09617755856966707