1 0.38671875 0.08447265625 0.05859375 0.1455078125
0 0.4072265625 0.7724609375 0.0625 0.18359375
0 0.546875 0.78369140625 0.052734375 0.1728515625
0 0.72021484375 0.70849609375 0.0634765625 0.1435546875
0 0.59619140625 0.1484375 0.0498046875 0.140625
0 0.83740234375 0.1611328125 0.0361328125 0.13671875