0 0.30615234375 0.67919921875 0.0361328125 0.1513671875
0 0.486328125 0.68896484375 0.078125 0.1572265625
0 0.642578125 0.6455078125 0.046875 0.140625
0 0.796875 0.58642578125 0.05078125 0.1728515625
0 0.73876953125 0.1796875 0.0380859375 0.134765625
0 0.31787109375 0.1484375 0.0537109375 0.19140625