1 0.4443359375 0.74853515625 0.087890625 0.1552734375
0 0.27294921875 0.6904296875 0.0498046875 0.099609375
0 0.7080078125 0.24169921875 0.2109375 0.1591796875
0 0.41943359375 0.267578125 0.0576171875 0.07421875