0 0.39306640625 0.779296875 0.0439453125 0.16015625
0 0.501953125 0.79833984375 0.05078125 0.1552734375
0 0.83447265625 0.6455078125 0.0419921875 0.134765625
0 0.65625 0.166015625 0.05078125 0.15234375
0 0.23681640625 0.2158203125 0.0380859375 0.18359375
0 0.166015625 0.73291015625 0.03515625 0.1162109375