0 0.32861328125 0.76416015625 0.0693359375 0.1103515625
0 0.61865234375 0.716796875 0.0693359375 0.08984375
0 0.791015625 0.15966796875 0.041015625 0.1103515625
0 0.59619140625 0.14453125 0.0693359375 0.09765625
0 0.40283203125 0.13330078125 0.0693359375 0.0947265625
0 0.15478515625 0.1396484375 0.0302734375 0.05859375