1 0.73193359375 0.75439453125 0.2763671875 0.1279296875
0 0.3740234375 0.81298828125 0.119140625 0.1357421875
0 0.49560546875 0.1064453125 0.0498046875 0.123046875
0 0.75439453125 0.1123046875 0.0595703125 0.126953125
0 0.20361328125 0.80615234375 0.0830078125 0.1220703125