0 0.501953125 0.76513671875 0.033203125 0.1552734375
0 0.6865234375 0.80126953125 0.041015625 0.1376953125
0 0.205078125 0.73388671875 0.03515625 0.1337890625
0 0.22705078125 0.21875 0.0322265625 0.140625
0 0.50244140625 0.2919921875 0.0537109375 0.16015625
0 0.6796875 0.31103515625 0.05078125 0.1689453125