0 0.20751953125 0.70849609375 0.0400390625 0.0986328125
0 0.39208984375 0.74462890625 0.0478515625 0.0888671875
0 0.57568359375 0.72705078125 0.0615234375 0.0947265625
0 0.83837890625 0.66796875 0.0478515625 0.08984375
0 0.7587890625 0.2373046875 0.04296875 0.072265625
0 0.576171875 0.22802734375 0.02734375 0.0712890625
0 0.3837890625 0.2265625 0.03515625 0.07421875
0 0.1767578125 0.228515625 0.0625 0.08203125