0 0.48388671875 0.79638671875 0.0634765625 0.1611328125
0 0.8271484375 0.75537109375 0.083984375 0.1689453125
0 0.162109375 0.70947265625 0.0546875 0.1943359375
0 0.2900390625 0.24755859375 0.07421875 0.1416015625
0 0.5439453125 0.1767578125 0.01953125 0.111328125
0 0.787109375 0.1396484375 0.01953125 0.07421875