0 0.482421875 0.146484375 0.048828125 0.15625
0 0.6689453125 0.1435546875 0.046875 0.15625
0 0.8310546875 0.1416015625 0.08203125 0.0859375
0 0.67919921875 0.669921875 0.0458984375 0.15625
0 0.84716796875 0.666015625 0.0576171875 0.15625