1 0.7236328125 0.12451171875 0.083984375 0.2197265625
0 0.51611328125 0.1640625 0.0908203125 0.123046875
0 0.40966796875 0.70703125 0.0419921875 0.08984375
0 0.5869140625 0.73193359375 0.056640625 0.1025390625
0 0.751953125 0.748046875 0.052734375 0.099609375