0 0.2802734375 0.6533203125 0.046875 0.12109375
0 0.50537109375 0.65087890625 0.0634765625 0.1103515625
0 0.818359375 0.69287109375 0.0390625 0.0927734375
0 0.78759765625 0.15576171875 0.0380859375 0.0927734375
0 0.5458984375 0.14013671875 0.056640625 0.1005859375
0 0.3828125 0.16796875 0.033203125 0.103515625