0 0.20654296875 0.58544921875 0.0771484375 0.1279296875
0 0.4677734375 0.625 0.083984375 0.09765625
0 0.54638671875 0.13427734375 0.0400390625 0.0927734375
0 0.294921875 0.15966796875 0.07421875 0.1279296875