1 0.59912109375 0.853515625 0.2587890625 0.23828125
0 0.22705078125 0.69482421875 0.0361328125 0.1455078125
0 0.20458984375 0.18212890625 0.0322265625 0.1376953125
0 0.50634765625 0.1630859375 0.0419921875 0.12890625
0 0.75244140625 0.20263671875 0.0361328125 0.1552734375