0 0.47021484375 0.7548828125 0.0419921875 0.1875
0 0.64990234375 0.75439453125 0.0439453125 0.1748046875
0 0.83837890625 0.71533203125 0.0380859375 0.1611328125
0 0.7255859375 0.1162109375 0.044921875 0.130859375
0 0.529296875 0.12158203125 0.044921875 0.1376953125
0 0.3525390625 0.138671875 0.05078125 0.154296875