1 0.5478515625 0.84228515625 0.125 0.2392578125
0 0.822265625 0.71728515625 0.0625 0.1474609375
0 0.27587890625 0.82763671875 0.0517578125 0.1572265625
0 0.3232421875 0.2431640625 0.08984375 0.15625
0 0.55322265625 0.15283203125 0.0908203125 0.1650390625
0 0.81884765625 0.1552734375 0.0673828125 0.119140625