0 0.29150390625 0.7197265625 0.0419921875 0.166015625
0 0.60400390625 0.73486328125 0.0771484375 0.1689453125
0 0.6298828125 0.19384765625 0.044921875 0.1572265625
0 0.3935546875 0.18701171875 0.044921875 0.1669921875
0 0.2060546875 0.18212890625 0.0390625 0.1689453125