0 0.62109375 0.69287109375 0.0625 0.1162109375
0 0.4208984375 0.58935546875 0.056640625 0.1494140625
0 0.38232421875 0.1171875 0.0498046875 0.1015625
0 0.537109375 0.12890625 0.068359375 0.107421875
0 0.68212890625 0.10546875 0.0771484375 0.12109375