0 0.18349358974358976 0.5414091470951793 0.07532051282051282 0.1161928306551298
0 0.5280448717948718 0.6891223733003708 0.20673076923076922 0.13720642768850433
0 0.6634615384615384 0.054388133498145856 0.07051282051282051 0.07663782447466007
0 0.41025641025641024 0.13967861557478367 0.0673076923076923 0.103831891223733
0 0.14022435897435898 0.14400494437577255 0.06891025641025642 0.10259579728059333