0 0.26708984375 0.63037109375 0.1044921875 0.1650390625
0 0.58349609375 0.69873046875 0.0673828125 0.1572265625
0 0.63134765625 0.20849609375 0.0517578125 0.1123046875
0 0.39794921875 0.15576171875 0.0693359375 0.1064453125
0 0.18115234375 0.134765625 0.0498046875 0.091796875