1 0.34228515625 0.7314453125 0.0927734375 0.162109375
0 0.5732421875 0.7216796875 0.05859375 0.125
0 0.69189453125 0.232421875 0.0634765625 0.1015625
0 0.23388671875 0.1591796875 0.0673828125 0.09765625