0 0.654296875 0.14404296875 0.0234375 0.1396484375
0 0.55517578125 0.6435546875 0.0263671875 0.115234375
0 0.82763671875 0.52587890625 0.0322265625 0.1220703125
0 0.27099609375 0.6982421875 0.0615234375 0.15234375