0 0.2578125 0.7265625 0.025390625 0.15625
0 0.40869140625 0.697265625 0.0341796875 0.15625
0 0.62890625 0.7509765625 0.185546875 0.15625
0 0.2646484375 0.1826171875 0.0546875 0.15625
0 0.4326171875 0.2109375 0.0546875 0.15625
0 0.65625 0.2021484375 0.154296875 0.15625