1 0.3701171875 0.8251953125 0.06640625 0.115234375
0 0.5439453125 0.81787109375 0.046875 0.0888671875
0 0.82861328125 0.82666015625 0.0693359375 0.0869140625
0 0.58349609375 0.28173828125 0.0498046875 0.0986328125
0 0.4091796875 0.2236328125 0.07421875 0.091796875
0 0.22265625 0.21240234375 0.046875 0.0986328125