0 0.23779296875 0.8369140625 0.0361328125 0.107421875
0 0.53857421875 0.80517578125 0.0634765625 0.1337890625
0 0.845703125 0.7353515625 0.046875 0.103515625
0 0.26123046875 0.275390625 0.0478515625 0.134765625
0 0.80615234375 0.1669921875 0.0654296875 0.109375