0 0.46435546875 0.77734375 0.0302734375 0.109375
0 0.66064453125 0.7431640625 0.0595703125 0.109375
0 0.79833984375 0.7578125 0.0712890625 0.134765625
0 0.72021484375 0.23876953125 0.0712890625 0.0888671875
0 0.50341796875 0.265625 0.0498046875 0.11328125
0 0.32470703125 0.2490234375 0.0615234375 0.109375