0 0.185546875 0.21875 0.0546875 0.119140625
0 0.37109375 0.21142578125 0.037109375 0.1396484375
0 0.6171875 0.1552734375 0.05859375 0.111328125
0 0.8486328125 0.1630859375 0.0234375 0.08203125
1 0.75244140625 0.751953125 0.1318359375 0.177734375
0 0.41796875 0.8212890625 0.0546875 0.17578125
0 0.15673828125 0.87890625 0.0146484375 0.044921875