0 0.1611328125 0.6259765625 0.025390625 0.107421875
0 0.4990234375 0.74462890625 0.275390625 0.1943359375
0 0.80712890625 0.7333984375 0.1162109375 0.15234375
0 0.34619140625 0.17626953125 0.0498046875 0.1455078125
0 0.576171875 0.18994140625 0.06640625 0.1298828125
0 0.74560546875 0.1796875 0.0654296875 0.125
0 0.15673828125 0.1298828125 0.0263671875 0.08984375