1 0.5301130712032318 0.14262661337852478 0.10311704874038696 0.15283548831939697
1 0.5823594033718109 0.8545337915420532 0.09327787160873413 0.12918555736541748
1 0.7497456669807434 0.8491122424602509 0.09866666793823242 0.11662048101425171
1 0.35481707751750946 0.13550790026783943 0.089689701795578 0.12559746950864792