0 0.3583984375 0.66796875 0.044921875 0.138671875
0 0.544921875 0.67822265625 0.07421875 0.1435546875
0 0.72314453125 0.68896484375 0.0478515625 0.1474609375
0 0.83642578125 0.1611328125 0.0283203125 0.0859375
0 0.68310546875 0.1650390625 0.0439453125 0.1171875
0 0.51708984375 0.1572265625 0.0634765625 0.1484375
1 0.3212890625 0.07861328125 0.103515625 0.1337890625