0 0.3837890625 0.791015625 0.068359375 0.140625
0 0.6025390625 0.7841796875 0.1015625 0.173828125
0 0.60498046875 0.162109375 0.0439453125 0.1484375
0 0.83251953125 0.2177734375 0.0498046875 0.123046875
0 0.7529296875 0.7099609375 0.0625 0.154296875