1 0.580078125 0.1748046875 0.091796875 0.125
1 0.638671875 0.71337890625 0.0703125 0.0888671875
0 0.837890625 0.708984375 0.044921875 0.1171875
0 0.78173828125 0.234375 0.0576171875 0.09375
0 0.341796875 0.21435546875 0.0390625 0.1044921875
0 0.3974609375 0.65869140625 0.0390625 0.0732421875