0 0.42138671875 0.78564453125 0.0556640625 0.1181640625
0 0.58642578125 0.7724609375 0.0537109375 0.103515625
0 0.78515625 0.8154296875 0.052734375 0.107421875
0 0.27685546875 0.78564453125 0.0478515625 0.1181640625
0 0.1748046875 0.74462890625 0.033203125 0.0654296875