0 0.6708984375 0.197265625 0.09765625 0.15625
0 0.51953125 0.25732421875 0.0625 0.1552734375
0 0.27685546875 0.7890625 0.0361328125 0.15625
0 0.359375 0.28515625 0.041015625 0.15625
0 0.5302734375 0.71875 0.03125 0.1328125
0 0.6865234375 0.6796875 0.033203125 0.15625