0 0.6376953125 0.70654296875 0.044921875 0.1396484375
0 0.81298828125 0.73095703125 0.0380859375 0.1396484375
0 0.337890625 0.6552734375 0.0390625 0.13671875
0 0.43212890625 0.08837890625 0.0380859375 0.1220703125
0 0.20556640625 0.6689453125 0.0537109375 0.1875
0 0.666015625 0.09619140625 0.0234375 0.1279296875