0 0.28173828125 0.73486328125 0.1572265625 0.0712890625
0 0.63623046875 0.25048828125 0.0537109375 0.1201171875
0 0.794921875 0.27978515625 0.056640625 0.0849609375
0 0.4140625 0.2197265625 0.044921875 0.09765625
0 0.177734375 0.14501953125 0.060546875 0.0986328125