0 0.568359375 0.73779296875 0.068359375 0.1513671875
0 0.4677734375 0.2216796875 0.060546875 0.15625
0 0.85498046875 0.60009765625 0.0341796875 0.1123046875
0 0.29248046875 0.75634765625 0.0595703125 0.1591796875
0 0.283203125 0.208984375 0.060546875 0.158203125
0 0.19140625 0.2451171875 0.0546875 0.140625