0 0.2745571658615137 0.6900369003690037 0.09178743961352658 0.0984009840098401
0 0.644927536231884 0.6580565805658056 0.09500805152979067 0.07380073800738007
0 0.8003220611916264 0.1113161131611316 0.07085346215780998 0.09471094710947109
0 0.24154589371980678 0.15313653136531366 0.05475040257648953 0.08733087330873308
0 0.5177133655394525 0.0940959409594096 0.05958132045088567 0.06519065190651907