0 0.8427734375 0.18310546875 0.033203125 0.1201171875
0 0.5732421875 0.20068359375 0.060546875 0.0947265625
0 0.400390625 0.14404296875 0.083984375 0.0810546875
0 0.2412109375 0.13232421875 0.044921875 0.0751953125