1 0.3505859375 0.17236328125 0.119140625 0.1435546875
0 0.1708984375 0.1796875 0.060546875 0.099609375
0 0.55908203125 0.25390625 0.0419921875 0.07421875
0 0.794921875 0.2314453125 0.080078125 0.0703125
0 0.8037109375 0.701171875 0.029296875 0.06640625
0 0.55078125 0.7177734375 0.095703125 0.091796875
0 0.2841796875 0.72998046875 0.06640625 0.1064453125