0 0.3720703125 0.7119140625 0.046875 0.115234375
0 0.68896484375 0.74853515625 0.1044921875 0.1240234375
0 0.6728515625 0.185546875 0.125 0.103515625
0 0.43798828125 0.1337890625 0.0888671875 0.125
0 0.16162109375 0.17138671875 0.0439453125 0.0986328125