0 0.38870967741935486 0.6998769987699877 0.0967741935483871 0.13284132841328414
0 0.7153225806451613 0.6383763837638375 0.043548387096774194 0.1057810578105781
0 0.7556451612903227 0.2158671586715867 0.07903225806451612 0.11439114391143912
0 0.4612903225806451 0.20418204182041821 0.04838709677419355 0.11316113161131611
0 0.1443548387096774 0.2607626076260763 0.0532258064516129 0.0984009840098401