0 0.14111328125 0.75244140625 0.0146484375 0.0986328125
0 0.39501953125 0.74072265625 0.0439453125 0.1318359375
0 0.57763671875 0.7099609375 0.0537109375 0.111328125
0 0.74462890625 0.6767578125 0.0244140625 0.099609375
0 0.818359375 0.1787109375 0.025390625 0.0859375
0 0.6337890625 0.2197265625 0.0390625 0.091796875
0 0.4638671875 0.2509765625 0.044921875 0.095703125
0 0.3076171875 0.2744140625 0.052734375 0.0859375