1 0.6015948355197906 0.05864755064249039 0.07818526029586792 0.11729510128498077
1 0.6015948355197906 0.05864755064249039 0.07818526029586792 0.11729510128498077
1 0.6015948355197906 0.05864755064249039 0.07818526029586792 0.11729510128498077
1 0.6015948355197906 0.05864755064249039 0.07818526029586792 0.11729510128498077