1 0.4931640625 0.1982421875 0.1015625 0.134765625
0 0.681640625 0.24951171875 0.044921875 0.1357421875
0 0.3681640625 0.775390625 0.068359375 0.150390625
0 0.55712890625 0.77880859375 0.0419921875 0.1201171875
0 0.7412109375 0.81201171875 0.0390625 0.1142578125
0 0.2236328125 0.759765625 0.078125 0.125