0 0.23876953125 0.69140625 0.0205078125 0.1171875
0 0.4130859375 0.720703125 0.0546875 0.1328125
0 0.615234375 0.73095703125 0.0625 0.1220703125
0 0.6767578125 0.23681640625 0.046875 0.1298828125
0 0.50439453125 0.2119140625 0.0361328125 0.111328125
0 0.8251953125 0.74951171875 0.068359375 0.1044921875