0 0.25732421875 0.65966796875 0.0615234375 0.2255859375
0 0.412109375 0.67236328125 0.068359375 0.2490234375
0 0.54443359375 0.66162109375 0.0595703125 0.2294921875
0 0.8349609375 0.57568359375 0.0390625 0.1630859375