0 0.46435546875 0.6640625 0.0419921875 0.08984375
0 0.77099609375 0.6728515625 0.0537109375 0.103515625
0 0.287109375 0.59765625 0.033203125 0.107421875
0 0.61279296875 0.1171875 0.0244140625 0.07421875
0 0.71923828125 0.21875 0.0322265625 0.134765625
0 0.18798828125 0.56689453125 0.0146484375 0.1103515625