0 0.44482421875 0.76416015625 0.0634765625 0.1064453125
0 0.7470703125 0.7919921875 0.05859375 0.103515625
0 0.15576171875 0.740234375 0.0498046875 0.09765625
0 0.248046875 0.28466796875 0.056640625 0.0830078125
0 0.50244140625 0.31494140625 0.0654296875 0.0869140625
0 0.76611328125 0.3349609375 0.0439453125 0.103515625