0 0.1865234375 0.58056640625 0.04296875 0.1259765625
0 0.45703125 0.52294921875 0.044921875 0.1025390625
0 0.751953125 0.48974609375 0.146484375 0.2197265625
0 0.68701171875 0.1162109375 0.0712890625 0.0859375
0 0.26708984375 0.09716796875 0.0458984375 0.1005859375