1 0.337890625 0.16552734375 0.076171875 0.1337890625
0 0.15771484375 0.216796875 0.0458984375 0.095703125
0 0.51123046875 0.19287109375 0.0478515625 0.1181640625
0 0.66748046875 0.2236328125 0.0556640625 0.1015625
0 0.7333984375 0.68359375 0.046875 0.115234375
0 0.4775390625 0.6943359375 0.04296875 0.107421875
0 0.31396484375 0.685546875 0.0615234375 0.12109375
0 0.154296875 0.6318359375 0.03125 0.119140625