1 0.55126953125 0.7587890625 0.1181640625 0.15234375
0 0.3212890625 0.669921875 0.0625 0.099609375
0 0.7841796875 0.1298828125 0.044921875 0.072265625
0 0.6259765625 0.169921875 0.05859375 0.0859375
0 0.39404296875 0.1826171875 0.0791015625 0.083984375
0 0.16748046875 0.1962890625 0.0556640625 0.080078125