0 0.2392578125 0.5927734375 0.044921875 0.080078125
0 0.39892578125 0.62646484375 0.0380859375 0.1044921875
0 0.572265625 0.64599609375 0.037109375 0.0771484375
0 0.54931640625 0.146484375 0.0634765625 0.076171875
0 0.36474609375 0.13720703125 0.0458984375 0.0830078125