1 0.38232421875 0.19677734375 0.0791015625 0.1611328125
1 0.7470703125 0.7080078125 0.119140625 0.271484375
0 0.41650390625 0.70166015625 0.0771484375 0.1025390625
0 0.65283203125 0.20556640625 0.0810546875 0.1279296875