0 0.37646484375 0.66845703125 0.0576171875 0.1435546875
0 0.54345703125 0.67333984375 0.0517578125 0.1572265625
0 0.70703125 0.68359375 0.060546875 0.15234375
0 0.57177734375 0.1513671875 0.0537109375 0.103515625
0 0.4013671875 0.162109375 0.056640625 0.109375
0 0.2216796875 0.1669921875 0.072265625 0.158203125