1 0.1851851851851852 0.18557336621454995 0.11594202898550725 0.14919852034525277
0 0.24235104669887278 0.810727496917386 0.05314009661835749 0.17632552404438964
0 0.890499194847021 0.6535141800246609 0.0644122383252818 0.15536374845869297
0 0.5161030595813204 0.2096177558569667 0.05314009661835749 0.14549938347718866
0 0.7834138486312399 0.1960542540073983 0.0853462157809984 0.17016029593094945