0 0.42724609375 0.71728515625 0.0673828125 0.1123046875
0 0.68359375 0.79248046875 0.048828125 0.0966796875
0 0.15673828125 0.6376953125 0.0517578125 0.125
0 0.427734375 0.1767578125 0.0625 0.125
0 0.1923828125 0.18798828125 0.052734375 0.1201171875