0 0.802734375 0.6455078125 0.041015625 0.197265625
0 0.7646484375 0.16357421875 0.052734375 0.1572265625
0 0.60400390625 0.19580078125 0.0810546875 0.1904296875
0 0.53076171875 0.73876953125 0.2470703125 0.2255859375
0 0.271484375 0.21484375 0.2265625 0.1875