0 0.22516025641025642 0.6353155339805825 0.0625 0.1929611650485437
0 0.4935897435897436 0.6413834951456311 0.08974358974358974 0.1929611650485437
0 0.8213141025641025 0.6571601941747572 0.049679487179487176 0.1929611650485437
0 0.4254807692307693 0.10983009708737865 0.049679487179487176 0.17111650485436894