0 0.74951171875 0.77734375 0.0537109375 0.08984375
0 0.52685546875 0.74755859375 0.1259765625 0.1005859375
0 0.79541015625 0.232421875 0.0478515625 0.1015625
0 0.40380859375 0.21142578125 0.0830078125 0.0888671875
0 0.23193359375 0.64306640625 0.0634765625 0.1064453125