0 0.60546875 0.79345703125 0.07421875 0.1689453125
0 0.263671875 0.64599609375 0.046875 0.1787109375
0 0.369140625 0.0966796875 0.046875 0.140625
0 0.67822265625 0.15771484375 0.0361328125 0.1376953125