1 0.39501953125 0.25048828125 0.0595703125 0.0947265625
0 0.20458984375 0.76025390625 0.0361328125 0.1376953125
0 0.498046875 0.80029296875 0.046875 0.1279296875
0 0.77001953125 0.77734375 0.0419921875 0.11328125
0 0.615234375 0.29296875 0.033203125 0.0859375
0 0.177734375 0.27001953125 0.033203125 0.1005859375