1 0.6552734375 0.130859375 0.068359375 0.125
0 0.75048828125 0.84814453125 0.0439453125 0.0947265625
0 0.583984375 0.79638671875 0.0625 0.1162109375
0 0.39794921875 0.7294921875 0.0478515625 0.11328125
0 0.21923828125 0.708984375 0.0498046875 0.103515625
0 0.39404296875 0.05810546875 0.0263671875 0.0693359375