0 0.408203125 0.75830078125 0.029296875 0.1494140625
0 0.607421875 0.68212890625 0.033203125 0.1181640625
0 0.7880859375 0.669921875 0.046875 0.13671875
0 0.21044921875 0.25048828125 0.0322265625 0.1279296875
0 0.541015625 0.185546875 0.033203125 0.115234375
0 0.390625 0.26513671875 0.03515625 0.1162109375