0 0.43994140625 0.68212890625 0.0419921875 0.1044921875
0 0.61376953125 0.69287109375 0.0556640625 0.1005859375
0 0.78271484375 0.67138671875 0.0458984375 0.1474609375
0 0.8359375 0.169921875 0.0546875 0.087890625
0 0.484375 0.16064453125 0.05859375 0.0986328125
0 0.1611328125 0.68505859375 0.048828125 0.1083984375