0 0.39013671875 0.74072265625 0.0283203125 0.0673828125
0 0.56494140625 0.78515625 0.0439453125 0.087890625
0 0.7080078125 0.875 0.052734375 0.12109375
0 0.595703125 0.2490234375 0.0390625 0.07421875
0 0.42919921875 0.24169921875 0.0341796875 0.0712890625
0 0.23291015625 0.23681640625 0.0517578125 0.0810546875
0 0.79833984375 0.25244140625 0.0341796875 0.0654296875