0 0.216796875 0.7333984375 0.052734375 0.09765625
0 0.5146484375 0.68701171875 0.05859375 0.0927734375
0 0.65576171875 0.673828125 0.0478515625 0.095703125
0 0.546875 0.19482421875 0.056640625 0.0986328125
0 0.30712890625 0.18310546875 0.0380859375 0.1220703125
0 0.78515625 0.21240234375 0.044921875 0.1103515625