0 0.48553054662379425 0.8506172839506173 0.06109324758842444 0.13333333333333333
0 0.8118971061093248 0.7018518518518518 0.07717041800643087 0.10987654320987654
0 0.7958199356913184 0.2796296296296296 0.06752411575562701 0.11728395061728394
0 0.5088424437299035 0.291358024691358 0.05305466237942122 0.10617283950617284
0 0.21141479099678456 0.3197530864197531 0.04662379421221865 0.10123456790123457