0 0.30517578125 0.84326171875 0.0693359375 0.1279296875
0 0.58740234375 0.7626953125 0.0419921875 0.11328125
0 0.8369140625 0.57373046875 0.06640625 0.0986328125
0 0.7451171875 0.2685546875 0.072265625 0.125
0 0.50244140625 0.205078125 0.0537109375 0.095703125
0 0.2880859375 0.18505859375 0.046875 0.0888671875