1 0.3040761202573776 0.8180381953716278 0.1128208339214325 0.16944462060928345
1 0.3837500065565109 0.8414087891578674 0.11470738053321838 0.16995012760162354
1 0.4644237458705902 0.12494432181119919 0.2072088122367859 0.24988864362239838
1 0.6180506944656372 0.17828293424099684 0.1709805727005005 0.3146116379648447