0 0.36572265625 0.70947265625 0.0478515625 0.1103515625
0 0.1982421875 0.708984375 0.052734375 0.072265625
0 0.390625 0.1689453125 0.05078125 0.11328125
0 0.22802734375 0.16845703125 0.0498046875 0.1044921875
0 0.61181640625 0.16552734375 0.0439453125 0.0986328125
0 0.6474609375 0.69775390625 0.056640625 0.1162109375