1 0.52734375 0.17236328125 0.1015625 0.1552734375
0 0.4580078125 0.740234375 0.033203125 0.12109375
0 0.7373046875 0.74951171875 0.03515625 0.1220703125
0 0.74560546875 0.19970703125 0.0380859375 0.1123046875
0 0.1630859375 0.75 0.029296875 0.095703125
0 0.25244140625 0.189453125 0.0302734375 0.103515625