0 0.40869140625 0.689453125 0.0419921875 0.15234375
0 0.6005859375 0.6923828125 0.0390625 0.12890625
0 0.78466796875 0.65673828125 0.0380859375 0.1572265625
0 0.31103515625 0.14892578125 0.0439453125 0.1240234375
0 0.51025390625 0.15283203125 0.0439453125 0.1318359375
0 0.71435546875 0.1044921875 0.0419921875 0.107421875