0 0.17138671875 0.81591796875 0.0263671875 0.0908203125
0 0.34716796875 0.8076171875 0.0498046875 0.09375
0 0.5498046875 0.80810546875 0.068359375 0.1201171875
0 0.8486328125 0.734375 0.044921875 0.09375
0 0.37646484375 0.29833984375 0.0439453125 0.0966796875
0 0.5576171875 0.275390625 0.064453125 0.09375