0 0.69482421875 0.728515625 0.0380859375 0.1015625
0 0.421875 0.71875 0.046875 0.0859375
0 0.240234375 0.65234375 0.056640625 0.103515625
0 0.37841796875 0.23779296875 0.0419921875 0.0693359375
0 0.6201171875 0.2958984375 0.044921875 0.083984375
0 0.2216796875 0.171875 0.0625 0.080078125