0 0.3603515625 0.72998046875 0.052734375 0.0986328125
0 0.55126953125 0.73583984375 0.0380859375 0.0830078125
0 0.84716796875 0.7109375 0.0439453125 0.08984375
0 0.8310546875 0.18408203125 0.029296875 0.0947265625
0 0.55126953125 0.19140625 0.0556640625 0.0859375
0 0.3740234375 0.22607421875 0.056640625 0.0830078125