1 0.8937198067632851 0.7793572311495673 0.1706924315619968 0.16934487021013597
0 0.5853462157809983 0.7608158220024721 0.043478260869565216 0.12978986402966625
0 0.2278582930756844 0.7262051915945612 0.10144927536231885 0.15451174289245984
0 0.28341384863124 0.22249690976514214 0.08695652173913043 0.1260815822002472
0 0.11191626409017713 0.2558714462299135 0.09500805152979067 0.14585908529048208