0 0.2314453125 0.52197265625 0.033203125 0.1162109375
0 0.373046875 0.56689453125 0.0546875 0.1318359375
0 0.51806640625 0.67724609375 0.0498046875 0.1650390625
0 0.76171875 0.7822265625 0.037109375 0.123046875
0 0.744140625 0.16748046875 0.173828125 0.2001953125
0 0.52978515625 0.0732421875 0.0517578125 0.109375
0 0.33837890625 0.04443359375 0.0361328125 0.0537109375