0 0.25048828125 0.822265625 0.0361328125 0.14453125
0 0.45263671875 0.80419921875 0.1005859375 0.1357421875
0 0.67578125 0.74072265625 0.1015625 0.1494140625
0 0.4267578125 0.26904296875 0.029296875 0.1005859375
0 0.24169921875 0.26513671875 0.0458984375 0.1201171875