0 0.5205078125 0.75439453125 0.046875 0.0751953125
0 0.66943359375 0.72119140625 0.0537109375 0.1044921875
0 0.798828125 0.60693359375 0.056640625 0.0888671875
0 0.56298828125 0.25244140625 0.0595703125 0.0869140625
0 0.33837890625 0.330078125 0.0498046875 0.11328125
0 0.208984375 0.40283203125 0.0625 0.1103515625