1 0.7379421221864951 0.6763613861386139 0.1414790996784566 0.19183168316831684
0 0.31430868167202575 0.1188118811881188 0.05627009646302251 0.15594059405940594
0 0.6446945337620579 0.16336633663366334 0.05787781350482315 0.15346534653465346
0 0.33118971061093244 0.7054455445544554 0.05787781350482315 0.13613861386138615
0 0.9172025723472669 0.5847772277227723 0.07234726688102894 0.14727722772277227