0 0.732421875 0.65478515625 0.052734375 0.1572265625
0 0.45263671875 0.6484375 0.0361328125 0.140625
0 0.6484375 0.11572265625 0.03515625 0.1181640625
0 0.8291015625 0.60546875 0.05859375 0.158203125
0 0.41455078125 0.08984375 0.0205078125 0.078125
0 0.17529296875 0.642578125 0.0244140625 0.130859375