0 0.5283203125 0.83984375 0.4765625 0.24609375
0 0.81787109375 0.15625 0.0498046875 0.115234375
0 0.669921875 0.22509765625 0.029296875 0.1025390625
0 0.4287109375 0.25537109375 0.046875 0.0849609375
0 0.193359375 0.279296875 0.0625 0.103515625