0 0.30806451612903224 0.8558168316831684 0.02903225806451613 0.09034653465346534
0 0.5411290322580645 0.8353960396039605 0.07903225806451612 0.10891089108910891
0 0.7919354838709677 0.7592821782178217 0.0935483870967742 0.11757425742574257
0 0.29838709677419356 0.24628712871287128 0.04516129032258064 0.10643564356435643
0 0.5387096774193548 0.17326732673267325 0.04838709677419355 0.12376237623762376