0 0.42919921875 0.7412109375 0.0419921875 0.109375
0 0.736328125 0.75 0.044921875 0.095703125
0 0.16064453125 0.64453125 0.0537109375 0.0859375
0 0.412109375 0.1875 0.0390625 0.107421875
0 0.66650390625 0.19775390625 0.0595703125 0.0810546875
0 0.84423828125 0.21484375 0.0654296875 0.083984375