0 0.15673828125 0.61181640625 0.0361328125 0.0791015625
0 0.32568359375 0.66650390625 0.0634765625 0.0986328125
0 0.50048828125 0.68603515625 0.0517578125 0.0947265625
0 0.79150390625 0.71240234375 0.0810546875 0.1005859375
0 0.65185546875 0.2216796875 0.0615234375 0.08984375
0 0.48583984375 0.19580078125 0.0556640625 0.0751953125
0 0.31298828125 0.17041015625 0.0380859375 0.0693359375