0 0.0955056179775281 0.648034398034398 0.06581059390048154 0.11179361179361179
0 0.32985553772070625 0.6572481572481573 0.06581059390048154 0.11793611793611794
0 0.6878009630818619 0.6805896805896806 0.08186195826645265 0.12776412776412777
0 0.7158908507223114 0.23280098280098283 0.08346709470304976 0.08722358722358722
0 0.40770465489566615 0.26474201474201475 0.05778491171749599 0.09705159705159705
0 0.18298555377207062 0.2573710073710074 0.05778491171749599 0.08476658476658476