1 0.26515766978263855 0.1989615373313427 0.19628113508224487 0.1541585698723793
1 0.45967552065849304 0.13066444173455238 0.10104542970657349 0.15490709990262985
1 0.615388035774231 0.12129378318786621 0.09022665023803711 0.1047278642654419
1 0.49141256511211395 0.7358447313308716 0.0765465795993805 0.0765465497970581