0 0.447265625 0.765625 0.076171875 0.119140625
0 0.31298828125 0.72802734375 0.0673828125 0.1123046875
0 0.76220703125 0.2802734375 0.0439453125 0.119140625
0 0.5458984375 0.17236328125 0.060546875 0.1201171875
0 0.337890625 0.23046875 0.0546875 0.1171875