0 0.42431640625 0.732421875 0.0576171875 0.126953125
0 0.611328125 0.65673828125 0.0546875 0.1201171875
0 0.81494140625 0.5986328125 0.0361328125 0.107421875
0 0.7197265625 0.10693359375 0.041015625 0.0810546875
0 0.53271484375 0.13525390625 0.0439453125 0.1044921875