0 0.20556640625 0.73046875 0.0400390625 0.12890625
0 0.39306640625 0.70556640625 0.0537109375 0.1259765625
0 0.57080078125 0.693359375 0.0615234375 0.140625
0 0.83251953125 0.6748046875 0.0537109375 0.126953125
0 0.8369140625 0.22119140625 0.048828125 0.0517578125
0 0.61279296875 0.17431640625 0.0732421875 0.1318359375
0 0.458984375 0.177734375 0.052734375 0.119140625
0 0.2978515625 0.1494140625 0.0625 0.134765625