0 0.23291015625 0.826171875 0.0400390625 0.140625
0 0.51171875 0.7119140625 0.048828125 0.125
0 0.69189453125 0.63720703125 0.0517578125 0.1005859375
0 0.85693359375 0.548828125 0.0126953125 0.0546875
0 0.82275390625 0.109375 0.0185546875 0.060546875
0 0.287109375 0.37060546875 0.04296875 0.0751953125
1 0.587890625 0.15185546875 0.109375 0.2744140625