1 0.84375 0.28759765625 0.0625 0.1220703125
1 0.5517578125 0.75537109375 0.08984375 0.1162109375
0 0.29296875 0.72119140625 0.044921875 0.0810546875
0 0.39111328125 0.21630859375 0.0322265625 0.0810546875
0 0.24365234375 0.1611328125 0.0712890625 0.103515625
0 0.61669921875 0.28759765625 0.0302734375 0.0869140625