0 0.85009765625 0.66015625 0.0478515625 0.16796875
0 0.607421875 0.63037109375 0.0390625 0.1416015625
0 0.25244140625 0.66943359375 0.2314453125 0.2490234375
0 0.6162109375 0.169921875 0.044921875 0.095703125
0 0.83056640625 0.2314453125 0.0751953125 0.12890625