0 0.1884765625 0.1611328125 0.08203125 0.15625
0 0.44970703125 0.1357421875 0.0869140625 0.15625
0 0.6337890625 0.11767578125 0.0625 0.1552734375
0 0.79931640625 0.091796875 0.0556640625 0.111328125
0 0.3720703125 0.7890625 0.10546875 0.15625
0 0.5927734375 0.74951171875 0.0625 0.1552734375
0 0.7880859375 0.724609375 0.033203125 0.15625