0 0.38671875 0.666015625 0.046875 0.142578125
0 0.57763671875 0.638671875 0.0361328125 0.12890625
0 0.744140625 0.60986328125 0.041015625 0.1259765625
0 0.6396484375 0.07275390625 0.021484375 0.0751953125
0 0.4423828125 0.07763671875 0.029296875 0.0771484375
0 0.2783203125 0.09033203125 0.02734375 0.0830078125