0 0.10466988727858294 0.6888888888888889 0.05152979066022544 0.13580246913580246
0 0.32689210950080516 0.717283950617284 0.05152979066022544 0.16049382716049382
0 0.5700483091787439 0.717283950617284 0.04186795491143317 0.16049382716049382
0 0.3172302737520129 0.17037037037037037 0.03542673107890499 0.10123456790123457
0 0.7181964573268921 0.2111111111111111 0.03542673107890499 0.1308641975308642