1 0.62841796875 0.7783203125 0.0888671875 0.080078125
0 0.37548828125 0.79541015625 0.1337890625 0.1376953125
0 0.55615234375 0.24609375 0.0361328125 0.158203125
0 0.78955078125 0.275390625 0.0302734375 0.169921875
0 0.3427734375 0.19482421875 0.0625 0.1806640625