0 0.15185546875 0.78076171875 0.0400390625 0.1298828125
0 0.4423828125 0.84765625 0.0546875 0.123046875
0 0.75927734375 0.84619140625 0.0458984375 0.1396484375
0 0.666015625 0.21923828125 0.064453125 0.1279296875
0 0.4326171875 0.32470703125 0.044921875 0.1708984375
0 0.1669921875 0.27734375 0.072265625 0.22265625