0 0.26513671875 0.66357421875 0.0478515625 0.1083984375
0 0.4609375 0.65625 0.064453125 0.09375
0 0.669921875 0.669921875 0.048828125 0.1171875
0 0.619140625 0.17138671875 0.0703125 0.0732421875
0 0.4296875 0.17529296875 0.052734375 0.0732421875
0 0.24169921875 0.154296875 0.0419921875 0.056640625
0 0.8515625 0.18115234375 0.02734375 0.0830078125