0 0.263671875 0.79345703125 0.046875 0.1396484375
0 0.5986328125 0.82958984375 0.052734375 0.1240234375
0 0.75830078125 0.19287109375 0.0419921875 0.1611328125
0 0.4931640625 0.2216796875 0.041015625 0.134765625
0 0.2255859375 0.25244140625 0.052734375 0.1220703125
0 0.7861328125 0.79833984375 0.052734375 0.1279296875