0 0.3774193548387097 0.7326302729528537 0.08064516129032258 0.09553349875930521
0 0.6346774193548387 0.707196029776675 0.05967741935483871 0.10421836228287841
0 0.8733870967741936 0.6755583126550868 0.0532258064516129 0.1054590570719603
0 0.8491935483870968 0.20781637717121587 0.037096774193548385 0.0707196029776675
0 0.6274193548387097 0.21588089330024812 0.054838709677419356 0.07444168734491315
0 0.38387096774193546 0.2165012406947891 0.07741935483870968 0.08312655086848635
0 0.08467741935483872 0.20099255583126552 0.05967741935483871 0.0794044665012407