0 0.64453125 0.71484375 0.056640625 0.13671875
0 0.796875 0.66845703125 0.052734375 0.1279296875
0 0.59716796875 0.12841796875 0.0556640625 0.1376953125
0 0.376953125 0.12890625 0.044921875 0.15234375
0 0.20556640625 0.1748046875 0.0380859375 0.169921875
0 0.373046875 0.701171875 0.02734375 0.12109375