0 0.38183279742765275 0.7311893203883495 0.06591639871382636 0.10072815533980582
0 0.747588424437299 0.7154126213592233 0.10932475884244373 0.1395631067961165
0 0.49437299035369775 0.20449029126213591 0.13344051446945338 0.11771844660194175
0 0.7427652733118971 0.15776699029126215 0.06430868167202572 0.08980582524271845
0 0.13263665594855306 0.27305825242718446 0.07877813504823152 0.10194174757281553