0 0.83349609375 0.73583984375 0.0537109375 0.1337890625
0 0.63720703125 0.78271484375 0.0595703125 0.1748046875
0 0.552734375 0.228515625 0.05078125 0.1640625
0 0.74462890625 0.228515625 0.0419921875 0.142578125
0 0.2890625 0.78466796875 0.05859375 0.1396484375
0 0.46435546875 0.794921875 0.0654296875 0.166015625