0 0.26220703125 0.2275390625 0.0439453125 0.1015625
1 0.466796875 0.13037109375 0.09765625 0.1865234375
1 0.6630859375 0.056640625 0.140625 0.087890625
1 0.712890625 0.83935546875 0.0859375 0.1689453125
0 0.41357421875 0.80078125 0.0263671875 0.076171875