0 0.35791015625 0.8544921875 0.0712890625 0.091796875
0 0.55322265625 0.869140625 0.0302734375 0.06640625
0 0.6513671875 0.208984375 0.041015625 0.080078125
0 0.458984375 0.16064453125 0.05078125 0.1064453125
0 0.341796875 0.095703125 0.0390625 0.091796875
0 0.158203125 0.8427734375 0.046875 0.083984375