0 0.4375 0.75830078125 0.05859375 0.0927734375
0 0.63037109375 0.7763671875 0.0751953125 0.083984375
0 0.80615234375 0.763671875 0.0478515625 0.07421875
0 0.76318359375 0.26708984375 0.0615234375 0.0947265625
0 0.59814453125 0.2939453125 0.0634765625 0.08984375
0 0.42919921875 0.30908203125 0.0712890625 0.0830078125