0 0.20751953125 0.8154296875 0.0517578125 0.125
0 0.27783203125 0.1826171875 0.0361328125 0.115234375
0 0.52490234375 0.17724609375 0.0439453125 0.1298828125
0 0.744140625 0.14892578125 0.0546875 0.1376953125
0 0.55322265625 0.7685546875 0.0498046875 0.111328125
0 0.791015625 0.6669921875 0.0703125 0.150390625