0 0.23291015625 0.15185546875 0.1474609375 0.1552734375
0 0.201171875 0.67919921875 0.115234375 0.1552734375
0 0.8017578125 0.47216796875 0.109375 0.1533203125
0 0.56787109375 0.14599609375 0.0380859375 0.1552734375