1 0.5797101449275363 0.8173431734317343 0.11594202898550725 0.15867158671586715
1 0.26489533011272137 0.8321033210332103 0.1723027375201288 0.1881918819188192
0 0.789049919484702 0.23677736777367775 0.04186795491143317 0.10947109471094711
0 0.5273752012882448 0.2521525215252153 0.06280193236714976 0.12792127921279212
0 0.30434782608695654 0.23677736777367772 0.07729468599033816 0.1070110701107011