0 0.32608695652173914 0.7432098765432099 0.05636070853462158 0.1259259259259259
0 0.5402576489533012 0.7962962962962963 0.06280193236714976 0.11851851851851852
0 0.12157809983896942 0.7475308641975309 0.040257648953301126 0.10246913580246914
0 0.5394524959742352 0.26851851851851855 0.06763285024154589 0.12469135802469136
0 0.7375201288244766 0.291358024691358 0.04508856682769726 0.145679012345679
0 0.3413848631239936 0.24320987654320989 0.05152979066022544 0.1308641975308642