0 0.21784565916398713 0.7549382716049383 0.04983922829581994 0.14938271604938272
0 0.5755627009646302 0.7814814814814814 0.06752411575562701 0.15555555555555556
0 0.8062700964630225 0.730246913580247 0.05627009646302251 0.16913580246913582
0 0.43167202572347263 0.25864197530864197 0.0594855305466238 0.13209876543209875
0 0.1937299035369775 0.2506172839506173 0.07556270096463022 0.1728395061728395