0 0.31169871794871795 0.6443361753958587 0.07532051282051282 0.11936662606577345
0 0.5729166666666666 0.5706455542021924 0.07532051282051282 0.11571254567600488
0 0.8092948717948718 0.5079171741778319 0.05128205128205128 0.09987819732034105
0 0.47275641025641024 0.08160779537149818 0.057692307692307696 0.06090133982947625
0 0.25 0.133373934226553 0.057692307692307696 0.08891595615103533
0 0.029647435897435896 0.17600487210718635 0.03685897435897436 0.07673568818514007