1 0.42724609375 0.048828125 0.0693359375 0.095703125
0 0.46533203125 0.63623046875 0.0537109375 0.1103515625
0 0.66357421875 0.6298828125 0.0751953125 0.12109375
0 0.8515625 0.6328125 0.0234375 0.080078125
0 0.328125 0.623046875 0.078125 0.12109375
0 0.1982421875 0.63720703125 0.044921875 0.1240234375