1 0.3088155537843704 0.25247370451688766 0.06942960619926453 0.15781797468662262
1 0.3088155537843704 0.25247370451688766 0.06942960619926453 0.15781797468662262
1 0.3088155537843704 0.25247370451688766 0.06942960619926453 0.15781797468662262
1 0.3088155537843704 0.25247370451688766 0.06942960619926453 0.15781797468662262