0 0.53466796875 0.80615234375 0.0302734375 0.1552734375
0 0.36669921875 0.81689453125 0.0302734375 0.1552734375
0 0.20654296875 0.27197265625 0.0517578125 0.1552734375
0 0.5380859375 0.27978515625 0.037109375 0.1552734375