0 0.53759765625 0.08935546875 0.0458984375 0.1416015625
1 0.6923828125 0.0849609375 0.099609375 0.140625
0 0.2177734375 0.603515625 0.03125 0.15625
0 0.5048828125 0.646484375 0.048828125 0.15625
0 0.68310546875 0.650390625 0.0791015625 0.15625