0 0.31884057971014496 0.7650676506765067 0.028985507246376812 0.11808118081180811
0 0.7181964573268922 0.7312423124231242 0.0644122383252818 0.1070110701107011
0 0.039452495974235106 0.28167281672816724 0.027375201288244767 0.0984009840098401
0 0.22544283413848631 0.09717097170971709 0.07407407407407407 0.15252152521525214
0 0.03864734299516908 0.6027060270602705 0.02576489533011272 0.06888068880688807