0 0.15105008077544427 0.6307028360049322 0.12762520193861066 0.15906288532675708
0 0.5040387722132472 0.6997533908754624 0.10339256865912763 0.14180024660912455
0 0.8723747980613894 0.6843403205918619 0.06462035541195477 0.11837237977805179
0 0.8101777059773829 0.23982737361282366 0.05654281098546042 0.11960542540073983
0 0.5016155088852989 0.22996300863131935 0.046849757673667204 0.10480887792848335
0 0.1978998384491115 0.2219482120838471 0.0791599353796446 0.12083847102342787