0 0.08856682769726248 0.8275862068965517 0.0998389694041868 0.1206896551724138
0 0.37359098228663445 0.7986453201970443 0.13848631239935588 0.16379310344827586
0 0.7190016103059582 0.6958128078817734 0.11755233494363929 0.14285714285714285
0 0.9138486312399355 0.15948275862068967 0.0821256038647343 0.11699507389162561
0 0.34863123993558776 0.15825123152709358 0.5072463768115942 0.2105911330049261