1 0.5474713742733002 0.13949199207127094 0.16121262311935425 0.16052209958434105
1 0.7209210097789764 0.8113402426242828 0.12642830610275269 0.14507275819778442
1 0.5460948646068573 0.8814380466938019 0.08509057760238647 0.118236243724823
1 0.12944165617227554 0.2282494455575943 0.10094143450260162 0.12511011958122253