0 0.64208984375 0.72021484375 0.0380859375 0.0908203125
0 0.435546875 0.75341796875 0.06640625 0.0947265625
0 0.53759765625 0.09326171875 0.0634765625 0.0986328125
0 0.7255859375 0.12255859375 0.037109375 0.0634765625
0 0.3681640625 0.16162109375 0.0390625 0.0712890625