0 0.21484375 0.333984375 0.154296875 0.15625
0 0.7607421875 0.2587890625 0.21484375 0.15625
0 0.20947265625 0.6513671875 0.1416015625 0.15625
0 0.5234375 0.79296875 0.0546875 0.15625
0 0.81689453125 0.779296875 0.0517578125 0.15625