1 0.4296875 0.85791015625 0.12109375 0.1259765625
1 0.2333984375 0.08740234375 0.109375 0.1630859375
0 0.61865234375 0.2158203125 0.0478515625 0.103515625
0 0.3681640625 0.19189453125 0.0625 0.1044921875
0 0.69091796875 0.83349609375 0.0380859375 0.1005859375
0 0.83984375 0.80419921875 0.046875 0.1337890625