0 0.2509765625 0.81982421875 0.052734375 0.1201171875
0 0.4130859375 0.74462890625 0.0390625 0.1142578125
0 0.587890625 0.724609375 0.0546875 0.099609375
0 0.77978515625 0.66455078125 0.0751953125 0.1220703125
0 0.494140625 0.1591796875 0.044921875 0.119140625
0 0.3330078125 0.18408203125 0.041015625 0.1064453125