0 0.34619140625 0.12109375 0.0556640625 0.1875
0 0.560546875 0.12109375 0.0390625 0.17578125
0 0.83642578125 0.55615234375 0.0556640625 0.2255859375
0 0.359375 0.57470703125 0.0625 0.2431640625
0 0.62841796875 0.57275390625 0.1005859375 0.2470703125