1 0.29147445410490036 0.8480567038059235 0.08864726126194 0.14458054304122925
1 0.29147445410490036 0.8480567038059235 0.08864726126194 0.14458054304122925
1 0.29147445410490036 0.8480567038059235 0.08864726126194 0.14458054304122925
1 0.29147445410490036 0.8480567038059235 0.08864726126194 0.14458054304122925