0 0.2942122186495177 0.788627935723115 0.0932475884244373 0.1557478368355995
0 0.5667202572347267 0.8028430160692213 0.08842443729903537 0.15698393077873918
0 0.9670418006430868 0.7490729295426451 0.04019292604501608 0.08899876390605686
0 0.6278135048231511 0.188504326328801 0.05305466237942122 0.12237330037082818
0 0.41398713826366557 0.1946847960444994 0.05627009646302251 0.12484548825710753
0 0.16639871382636656 0.16254635352286773 0.05627009646302251 0.12978986402966625