1 0.58984375 0.78125 0.080078125 0.150390625
0 0.34912109375 0.7705078125 0.0732421875 0.140625
0 0.8056640625 0.79931640625 0.068359375 0.1513671875
0 0.765625 0.18701171875 0.056640625 0.1357421875
0 0.3310546875 0.158203125 0.0625 0.1328125
0 0.5517578125 0.185546875 0.109375 0.205078125