0 0.50390625 0.6455078125 0.0390625 0.107421875
0 0.68115234375 0.58642578125 0.0439453125 0.1142578125
0 0.853515625 0.5576171875 0.03125 0.111328125
0 0.3623046875 0.15625 0.03125 0.103515625
0 0.4853515625 0.07763671875 0.033203125 0.0810546875
0 0.2333984375 0.748046875 0.044921875 0.1171875