0 0.2998046875 0.701171875 0.0625 0.134765625
0 0.56982421875 0.697265625 0.0576171875 0.138671875
0 0.8173828125 0.70654296875 0.08203125 0.1162109375
0 0.33154296875 0.1494140625 0.2900390625 0.146484375