1 0.48193359375 0.267578125 0.0830078125 0.09375
0 0.38818359375 0.83740234375 0.0419921875 0.1123046875
0 0.5693359375 0.8193359375 0.060546875 0.126953125
0 0.76513671875 0.83642578125 0.1435546875 0.1201171875
0 0.26220703125 0.3232421875 0.0595703125 0.119140625