0 0.1591796875 0.72607421875 0.033203125 0.0712890625
0 0.31884765625 0.2236328125 0.0322265625 0.0859375
0 0.478515625 0.25830078125 0.052734375 0.0947265625
0 0.6787109375 0.2421875 0.107421875 0.072265625
0 0.67822265625 0.822265625 0.0361328125 0.07421875
0 0.46435546875 0.87890625 0.0419921875 0.072265625