0 0.5181674565560821 0.6664626682986536 0.07266982622432859 0.10893512851897184
0 0.768562401263823 0.7111383108935129 0.08372827804107424 0.10771113831089352
0 0.17693522906793047 0.5856793145654835 0.06003159557661927 0.1211750305997552
0 0.542654028436019 0.21481028151774784 0.10900473933649289 0.11627906976744186
0 0.7883096366508688 0.25703794369645044 0.037914691943127965 0.09547123623011015
0 0.9644549763033176 0.2937576499388005 0.04265402843601896 0.08567931456548347