0 0.8203125 0.18310546875 0.080078125 0.1552734375
0 0.546875 0.15087890625 0.064453125 0.1552734375
0 0.294921875 0.11865234375 0.064453125 0.1552734375
0 0.2158203125 0.80615234375 0.060546875 0.1552734375
0 0.81005859375 0.75244140625 0.1123046875 0.1552734375
0 0.52734375 0.84033203125 0.1015625 0.1552734375