1 0.41943359375 0.75048828125 0.0712890625 0.1396484375
0 0.59423828125 0.736328125 0.0322265625 0.08984375
0 0.75390625 0.73046875 0.033203125 0.0859375
0 0.2529296875 0.65380859375 0.046875 0.0869140625
0 0.64306640625 0.1669921875 0.0361328125 0.119140625
0 0.826171875 0.24072265625 0.046875 0.1044921875