0 0.61865234375 0.75830078125 0.0595703125 0.1181640625
0 0.439453125 0.74365234375 0.044921875 0.0927734375
0 0.27978515625 0.7509765625 0.0361328125 0.103515625
0 0.4189453125 0.25341796875 0.041015625 0.0888671875
0 0.58740234375 0.30517578125 0.0615234375 0.1240234375
0 0.78369140625 0.2978515625 0.0615234375 0.119140625