0 0.20361328125 0.69482421875 0.0654296875 0.1123046875
0 0.48974609375 0.7177734375 0.1552734375 0.15234375
0 0.28076171875 0.34130859375 0.0849609375 0.0888671875
0 0.47509765625 0.21337890625 0.0654296875 0.1162109375