1 0.1578525641025641 0.8014616321559075 0.27724358974358976 0.18026796589524968
0 0.7588141025641025 0.7046285018270402 0.12980769230769232 0.16930572472594396
0 0.9310897435897436 0.11388550548112059 0.03205128205128205 0.05968331303288672
0 0.7211538461538461 0.1577344701583435 0.07692307692307693 0.10109622411693057
0 0.4919871794871795 0.14068209500609014 0.11538461538461539 0.1668696711327649