0 0.83740234375 0.82958984375 0.0302734375 0.0927734375
0 0.60302734375 0.81591796875 0.1806640625 0.1318359375
0 0.81591796875 0.27734375 0.0263671875 0.119140625
0 0.646484375 0.203125 0.068359375 0.11328125
0 0.373046875 0.10009765625 0.0390625 0.0947265625
0 0.2421875 0.5615234375 0.05078125 0.119140625