0 0.1640625 0.1708984375 0.025390625 0.15625
0 0.32275390625 0.2158203125 0.0302734375 0.15625
0 0.5537109375 0.197265625 0.0625 0.15625
0 0.82666015625 0.1513671875 0.0771484375 0.15625
0 0.17236328125 0.7578125 0.0498046875 0.15625
0 0.60205078125 0.716796875 0.5205078125 0.240234375