0 0.44749596122778673 0.758282208588957 0.0420032310177706 0.1570552147239264
0 0.6736672051696284 0.7190184049079755 0.051696284329563816 0.1423312883435583
0 0.8828756058158319 0.6687116564417178 0.04361873990306947 0.13987730061349693
0 0.6970920840064619 0.16319018404907976 0.05977382875605816 0.13987730061349693
0 0.06785137318255251 0.7490797546012269 0.051696284329563816 0.09447852760736196
0 0.4297253634894992 0.20122699386503068 0.09046849757673667 0.13987730061349693