1 0.20947265625 0.80029296875 0.1337890625 0.0654296875
0 0.35791015625 0.82275390625 0.0361328125 0.1630859375
0 0.58544921875 0.791015625 0.0263671875 0.146484375
0 0.751953125 0.76416015625 0.02734375 0.1220703125
0 0.77294921875 0.24609375 0.0361328125 0.125
0 0.40087890625 0.26025390625 0.0302734375 0.1337890625